module gitlab.com/mliulion/ci-cd-dashboard-generator

go 1.18

require (
	github.com/sirupsen/logrus v1.8.1
	gopkg.in/yaml.v2 v2.4.0
)

require golang.org/x/sys v0.0.0-20191026070338-33540a1f6037 // indirect
